{
"verse_1" :" Allah ke naam ki madad se ( shuru karta hon ) jo sab ko Faiz pohanchanay wala bara hi meharban hai" ,
"verse_2" :" har aik tareef uss Allah ke liye hai jo tamam kaayenaat کاپالنے wala hai" ,
"verse_3" :" sab ko Faiz pohanchanay wala, musalsal be حدرحم karne wala" ,
"verse_4" :" jaza aur saza ke din کامالک hai" ,
"verse_5" :" hum sirf teri hi ibadat karte hain aur bas tujh hi se madad mangte hain" ,
"verse_6" :" batlata reh hum ko seedha rasta" ,
"verse_7" :" unn logon karast_h jin par to ne inaam farmaya. nah unn ka ( rasta ) jin par ( tera ) gazabb hai aur nah unn ka جوبھٹکے hue hain "
}